// Jest Snapshot v1, https://goo.gl/fbAQLP

exports[`HomeScreen component matches the previous snapshot 1`] = `
<Fragment>
  <div
    className="app-full-width-content"
  >
    <mock-location-map />
  </div>
  <div
    className="app-sidebar"
  >
    <mock-tag-cloud />
  </div>
  <div
    className="app-main-content"
  >
    <mock-media-list />
  </div>
</Fragment>
`;
