// Jest Snapshot v1, https://goo.gl/fbAQLP

exports[`LocationDetailLink Component matches the previous snapshot 1`] = `
<p
  className="location-detail-more"
>
  <Link
    className="location-detail-link"
    to="/location/tagId1"
  >
    More on tag1 displayName 
    →
  </Link>
</p>
`;
